…
``` r
cv_df = 
  crossv_mc(birthweight, 100) 

cv_df |> pull(train) |> nth(1) |> as_tibble()
```

    ## # A tibble: 3,473 × 22
    ##    babysex bhead blength   bwt delwt fincome frace gaweeks malform menarche
    ##    <fct>   <dbl>   <dbl> <dbl> <dbl>   <dbl> <fct>   <dbl> <fct>      <dbl>
    ##  1 2          34      51  3629   177      35 1        39.9 0             13
    ##  2 1          34      48  3062   156      65 2        25.9 0             14
    ##  3 2          36      50  3345   148      85 1        39.9 0             12
    ##  4 2          34      52  3374   156       5 1        41.6 0             13
    ##  5 1          33      52  3374   129      55 1        40.7 0             12
    ##  6 2          33      46  2523   126      96 2        40.3 0             14
    ##  7 1          36      52  3515   146      85 1        40.3 0             11
    ##  8 1          33      50  3459   169      75 2        40.7 0             12
    ##  9 2          35      51  3317   130      55 1        43.4 0             13
    ## 10 2          35      48  3175   158      75 1        39.7 0             13
    ## # ℹ 3,463 more rows
    ## # ℹ 12 more variables: mheight <dbl>, momage <dbl>, mrace <fct>, parity <fct>,
    ## #   pnumlbw <dbl>, pnumsga <dbl>, ppbmi <dbl>, ppwt <dbl>, smoken <dbl>,
    ## #   wtgain <dbl>, fitted_values <dbl>, residuals <dbl>

``` r
cv_df |> pull(test) |> nth(1) |> as_tibble()
```

    ## # A tibble: 869 × 22
    ##    babysex bhead blength   bwt delwt fincome frace gaweeks malform menarche
    ##    <fct>   <dbl>   <dbl> <dbl> <dbl>   <dbl> <fct>   <dbl> <fct>      <dbl>
    ##  1 1          34      52  3062   157      55 1        40   0             14
    ##  2 2          33      49  2778   140       5 1        37.4 0             12
    ##  3 1          35      51  3459   146      55 1        39.4 0             12
    ##  4 2          36      52  3629   154      65 1        40.3 0             11
    ##  5 1          34      52  3203   134      25 1        41.1 0             14
    ##  6 1          36      54  3402   161      95 1        40.1 0             11
    ##  7 2          35      53  3600   141      35 1        42.3 0             14
    ##  8 2          34      51  3232   155      55 1        41.6 0             15
    ##  9 1          35      52  3232   121      75 3        42.3 0             13
    ## 10 2          34      49  3317   142      35 1        40.4 0             12
    ## # ℹ 859 more rows
    ## # ℹ 12 more variables: mheight <dbl>, momage <dbl>, mrace <fct>, parity <fct>,
    ## #   pnumlbw <dbl>, pnumsga <dbl>, ppbmi <dbl>, ppwt <dbl>, smoken <dbl>,
    ## #   wtgain <dbl>, fitted_values <dbl>, residuals <dbl>
…
